{
  "project_info": {
    "project_number": "1049824754300",
    "firebase_url": "https://hot-recharge.firebaseio.com",
    "project_id": "hot-recharge",
    "storage_bucket": "hot-recharge.appspot.com"
  },
  "client": [
    {
      "client_info": {
        "mobilesdk_app_id": "1:1049824754300:android:bf8251f11190d911c127f9",
        "android_client_info": {
          "package_name": "com.example.hot_recharge"
        }
      },
      "oauth_client": [
        {
          "client_id": "1049824754300-huiu622n0bjfsorl4824urf28clef2fb.apps.googleusercontent.com",
          "client_type": 3
        }
      ],
      "api_key": [
        {
          "current_key": "AIzaSyALqLBFwLk7y6QjP8Q36AATTcMgArYoHX0"
        }
      ],
      "services": {
        "appinvite_service": {
          "other_platform_oauth_client": [
            {
              "client_id": "1049824754300-huiu622n0bjfsorl4824urf28clef2fb.apps.googleusercontent.com",
              "client_type": 3
            }
          ]
        }
      }
    }
  ],
  "configuration_version": "1"
}